%YAML 1.1
%TAG !u! tag:unity3d.com,2011:
--- !u!1045 &1
EditorBuildSettings:
  m_ObjectHideFlags: 0
  serializedVersion: 2
  m_Scenes:
  - enabled: 1
    path: Assets/Scenes/MainMenu.unity
    guid: a09a63eb8ab75b64c9f5788fd5d738ef
  - enabled: 1
    path: Assets/Scenes/MainScene.unity
    guid: d0150e79a281de84595e338dfaa7b867
  - enabled: 1
    path: Assets/Scenes/Ending.unity
    guid: 37d997ec72a29db45b2faf34928410ec
